%YAML 1.1
%TAG !u! tag:unity3d.com,2011:
--- !u!114 &11400000
MonoBehaviour:
  m_ObjectHideFlags: 0
  m_CorrespondingSourceObject: {fileID: 0}
  m_PrefabInstance: {fileID: 0}
  m_PrefabAsset: {fileID: 0}
  m_GameObject: {fileID: 0}
  m_Enabled: 1
  m_EditorHideFlags: 0
  m_Script: {fileID: 11500000, guid: 8bef01448bf4cb64e9d7511243be24d1, type: 3}
  m_Name: A1_Wallet
  m_EditorClassIdentifier: 
  ID: A1
  itemType: 0
  location: Entrance
  dateFound:
    _dateTime: 1/29/2021 12:00:00 AM
