%YAML 1.1
%TAG !u! tag:unity3d.com,2011:
--- !u!221 &22100000
AnimatorOverrideController:
  m_ObjectHideFlags: 0
  m_CorrespondingSourceObject: {fileID: 0}
  m_PrefabInstance: {fileID: 0}
  m_PrefabAsset: {fileID: 0}
  m_Name: animator_character_rave
  m_Controller: {fileID: 9100000, guid: 05b1a2025d5914e41bc7d161af22cca5, type: 2}
  m_Clips:
  - m_OriginalClip: {fileID: 4726583119966450862, guid: 200dd8a2b8613fb4096cdaf3ee72ef03, type: 3}
    m_OverrideClip: {fileID: 4726583119966450862, guid: 200dd8a2b8613fb4096cdaf3ee72ef03, type: 3}
  - m_OriginalClip: {fileID: -4927119398663312220, guid: 200dd8a2b8613fb4096cdaf3ee72ef03, type: 3}
    m_OverrideClip: {fileID: -4927119398663312220, guid: 200dd8a2b8613fb4096cdaf3ee72ef03, type: 3}
  - m_OriginalClip: {fileID: -6105763045238329035, guid: 200dd8a2b8613fb4096cdaf3ee72ef03, type: 3}
    m_OverrideClip: {fileID: -6105763045238329035, guid: 200dd8a2b8613fb4096cdaf3ee72ef03, type: 3}
  - m_OriginalClip: {fileID: -6890923174319689581, guid: 200dd8a2b8613fb4096cdaf3ee72ef03, type: 3}
    m_OverrideClip: {fileID: -6890923174319689581, guid: 200dd8a2b8613fb4096cdaf3ee72ef03, type: 3}
